%YAML 1.1
%TAG !u! tag:unity3d.com,2011:
--- !u!114 &11400000
MonoBehaviour:
  m_ObjectHideFlags: 0
  m_CorrespondingSourceObject: {fileID: 0}
  m_PrefabInstance: {fileID: 0}
  m_PrefabAsset: {fileID: 0}
  m_GameObject: {fileID: 0}
  m_Enabled: 1
  m_EditorHideFlags: 0
  m_Script: {fileID: 11500000, guid: edf52fe438de58943b9576289fe450dd, type: 3}
  m_Name: Cube
  m_EditorClassIdentifier: 
  Icon: {fileID: 21300000, guid: ca0ede4592ef766499a015634e962ed0, type: 3}
  Sound: {fileID: 8300000, guid: 643a1571949f6e54398007ae6b50e383, type: 3}
