%YAML 1.1
%TAG !u! tag:unity3d.com,2011:
--- !u!1045 &1
EditorBuildSettings:
  m_ObjectHideFlags: 0
  serializedVersion: 2
  m_Scenes:
  - enabled: 1
    path: Assets/Scenes/R1.3.2 Menu.unity
    guid: b8495ca0ee0b95940b0b7b9960e0738d
  - enabled: 1
    path: Assets/Scenes/R1.3.1 Gameplay.unity
    guid: 2650d8997d85a6b4d9411692b894f0ea
  m_configObjects: {}
